(footprint "Molex_Micro-Fit_3.0_43045-1200_2x06_P3.00mm_Horizontal" (version 20221018) (generator pcbnew)
  (layer "F.Cu")
  (descr "Molex Micro-Fit 3.0 Connector System, 43045-1200 (alternative finishes: 43045-120x), 6 Pins per row (https://www.molex.com/pdm_docs/sd/430450201_sd.pdf), generated with kicad-footprint-generator")
  (tags "connector Molex Micro-Fit_3.0 horizontal")
  (property "Sheetfile" "vzbiner.kicad_sch")
  (property "Sheetname" "")
  (property "ki_description" "Generic connector, double row, 02x06, top/bottom pin numbering scheme (row 1: 1...pins_per_row, row2: pins_per_row+1 ... num_pins), script generated (kicad-library-utils/schlib/autogen/connector/)")
  (property "ki_keywords" "connector")
  (attr through_hole)
  (fp_text reference "J1" (at -2.5 2.5) (layer "F.SilkS")
      (effects (font (size 1 1) (thickness 0.15)))
    (tstamp b392412a-72c4-4f4f-8449-728654380928)
  )
  (fp_text value "Main" (at 7.5 5.7) (layer "F.Fab")
      (effects (font (size 1 1) (thickness 0.15)))
    (tstamp f7de78f7-2fa4-4917-bccb-4e956761c68c)
  )
  (fp_text user "${REFERENCE}" (at 7.5 -8.22) (layer "F.Fab")
      (effects (font (size 1 1) (thickness 0.15)))
    (tstamp b8405842-c4da-463d-b2fa-501c7cf1a902)
  )
  (fp_line (start -3.685 -8.03) (end -2.685 -9.03)
    (stroke (width 0.12) (type solid)) (layer "F.SilkS") (tstamp ba1d80ef-67c6-4fd2-966b-8988dda66672))
  (fp_line (start -3.685 1.1) (end -3.685 -8.03)
    (stroke (width 0.12) (type solid)) (layer "F.SilkS") (tstamp c670bce5-5dd0-4f87-90f8-d6420558a969))
  (fp_line (start -2.685 -9.03) (end 17.685 -9.03)
    (stroke (width 0.12) (type solid)) (layer "F.SilkS") (tstamp 5276deaf-e951-4a41-8f2c-911cbe29966f))
  (fp_line (start 17.685 -9.03) (end 18.685 -8.03)
    (stroke (width 0.12) (type solid)) (layer "F.SilkS") (tstamp 7ab07961-b5b4-4dd3-94ec-db1b3b84b3b6))
  (fp_line (start 18.685 -8.03) (end 18.685 1.1)
    (stroke (width 0.12) (type solid)) (layer "F.SilkS") (tstamp 619a30ce-b994-4b71-8a68-88822d4a7a6d))
  (fp_line (start 18.685 1.1) (end -3.685 1.1)
    (stroke (width 0.12) (type solid)) (layer "F.SilkS") (tstamp c7919886-40b9-4dba-9a65-4e314321a442))
  (fp_line (start -4.08 -9.42) (end 19.08 -9.42)
    (stroke (width 0.05) (type solid)) (layer "F.CrtYd") (tstamp b5e3f454-f914-4e44-bc3d-0251e279b813))
  (fp_line (start -4.08 1.49) (end -4.08 -9.42)
    (stroke (width 0.05) (type solid)) (layer "F.CrtYd") (tstamp 73b765ec-234b-46ef-8090-8c12b7f317cd))
  (fp_line (start -1.25 1.49) (end -4.08 1.49)
    (stroke (width 0.05) (type solid)) (layer "F.CrtYd") (tstamp cf7f8728-a403-4605-872b-09340112f3ba))
  (fp_line (start -1.25 4.25) (end -1.25 1.49)
    (stroke (width 0.05) (type solid)) (layer "F.CrtYd") (tstamp ba335a73-d3a5-4473-be5c-ada580c4c0d2))
  (fp_line (start 16.25 1.49) (end 16.25 4.25)
    (stroke (width 0.05) (type solid)) (layer "F.CrtYd") (tstamp e1e1d295-7861-4c22-9663-c19951cc7525))
  (fp_line (start 16.25 4.25) (end -1.25 4.25)
    (stroke (width 0.05) (type solid)) (layer "F.CrtYd") (tstamp d251af71-9969-4927-a022-494f58e70950))
  (fp_line (start 19.08 -9.42) (end 19.08 1.49)
    (stroke (width 0.05) (type solid)) (layer "F.CrtYd") (tstamp b1026409-d0e6-4181-a134-5cbfb0977571))
  (fp_line (start 19.08 1.49) (end 16.25 1.49)
    (stroke (width 0.05) (type solid)) (layer "F.CrtYd") (tstamp 9f281ddc-de57-4906-abd4-10cac45776b2))
  (fp_line (start -3.575 -7.92) (end -2.575 -8.92)
    (stroke (width 0.1) (type solid)) (layer "F.Fab") (tstamp b37164bd-9ac6-4a41-9b03-bef86f58a5f7))
  (fp_line (start -3.575 0.99) (end -3.575 -7.92)
    (stroke (width 0.1) (type solid)) (layer "F.Fab") (tstamp 2d89e07a-d85b-44e7-874d-a1cde022dc2e))
  (fp_line (start -2.575 -8.92) (end 17.575 -8.92)
    (stroke (width 0.1) (type solid)) (layer "F.Fab") (tstamp 6be07477-5452-4ce9-aa6b-ffceb964eaa5))
  (fp_line (start -0.75 0.99) (end 0 0)
    (stroke (width 0.1) (type solid)) (layer "F.Fab") (tstamp b808cdec-f52e-480c-ad3e-2680c13dc51c))
  (fp_line (start 0 0) (end 0.75 0.99)
    (stroke (width 0.1) (type solid)) (layer "F.Fab") (tstamp 84297af4-c67c-4730-b39f-e8f4cf5e6ba0))
  (fp_line (start 17.575 -8.92) (end 18.575 -7.92)
    (stroke (width 0.1) (type solid)) (layer "F.Fab") (tstamp c1d23dca-8888-4679-a630-3cdda9da2879))
  (fp_line (start 18.575 -7.92) (end 18.575 0.99)
    (stroke (width 0.1) (type solid)) (layer "F.Fab") (tstamp 59a0e7ca-86cb-4195-a927-5de587dba8c6))
  (fp_line (start 18.575 0.99) (end -3.575 0.99)
    (stroke (width 0.1) (type solid)) (layer "F.Fab") (tstamp 91c48e38-eab7-4bc9-b7dc-7bfa5657130b))
  (pad "" np_thru_hole circle (at 2.16 -4.32) (size 3 3) (drill 3) (layers "*.Cu" "*.Mask") (tstamp 614ce840-8977-42b3-a3cc-88621a1b3b99))
  (pad "" np_thru_hole circle (at 12.86 -4.32) (size 3 3) (drill 3) (layers "*.Cu" "*.Mask") (tstamp 0e63f5ff-d98c-4627-8da1-04c1ede0db0b))
  (pad "1" thru_hole roundrect (at 0 0) (size 1.5 1.5) (drill 1.02) (layers "*.Cu" "*.Mask") (roundrect_rratio 0.166667) (tstamp 5688bb87-b34f-437a-b747-ab8d0080fbf7))
  (pad "2" thru_hole circle (at 3 0) (size 1.5 1.5) (drill 1.02) (layers "*.Cu" "*.Mask") (tstamp 2e8a6a41-dd67-417b-864e-85caea23773d))
  (pad "3" thru_hole circle (at 6 0) (size 1.5 1.5) (drill 1.02) (layers "*.Cu" "*.Mask") (tstamp 0d36b0e6-5ba9-4a2c-9948-e957ed1be908))
  (pad "4" thru_hole circle (at 9 0) (size 1.5 1.5) (drill 1.02) (layers "*.Cu" "*.Mask") (tstamp aa8ad561-2c96-470a-bb9d-c94a92b78ecc))
  (pad "5" thru_hole circle (at 12 0) (size 1.5 1.5) (drill 1.02) (layers "*.Cu" "*.Mask") (tstamp 4837c3a0-168b-42b1-aafb-f22f0f20b022))
  (pad "6" thru_hole circle (at 15 0) (size 1.5 1.5) (drill 1.02) (layers "*.Cu" "*.Mask") (tstamp 819336c2-ed8a-4fe1-8053-3acbf0ab0173))
  (pad "7" thru_hole circle (at 0 3) (size 1.5 1.5) (drill 1.02) (layers "*.Cu" "*.Mask") (tstamp 00ff5ed2-0a15-4d2d-9a44-00cfe6730f67))
  (pad "8" thru_hole circle (at 3 3) (size 1.5 1.5) (drill 1.02) (layers "*.Cu" "*.Mask") (tstamp 4d672169-65f7-49dd-b6ec-a59655368d1a))
  (pad "9" thru_hole circle (at 6 3) (size 1.5 1.5) (drill 1.02) (layers "*.Cu" "*.Mask") (tstamp 95dcdc4b-afa4-4c81-814d-8b57f5e6a3d1))
  (pad "10" thru_hole circle (at 9 3) (size 1.5 1.5) (drill 1.02) (layers "*.Cu" "*.Mask") (tstamp 256af147-e336-41b3-b145-30bad1a4af8e))
  (pad "11" thru_hole circle (at 12 3) (size 1.5 1.5) (drill 1.02) (layers "*.Cu" "*.Mask") (tstamp 378622df-568f-48d7-b9c4-f14d0a974be0))
  (pad "12" thru_hole circle (at 15 3) (size 1.5 1.5) (drill 1.02) (layers "*.Cu" "*.Mask") (tstamp 63428f4f-6dc6-49ff-9320-7946296f007e))
  (model "${KIPRJMOD}/3d/430451200.stp"
    (offset (xyz 7.5 4 4))
    (scale (xyz 1 1 1))
    (rotate (xyz -90 0 -180))
  )
)
