(footprint "Molex_Micro-Fit_3.0_43650-0215_1x02_P3.00mm_Vertical" (version 20221018) (generator pcbnew)
  (layer "F.Cu")
  (descr "Molex Micro-Fit 3.0 Connector System, 43650-0215 (compatible alternatives: 43650-0216, 43650-0217), 2 Pins per row (http://www.molex.com/pdm_docs/sd/436500215_sd.pdf), generated with kicad-footprint-generator")
  (tags "connector Molex Micro-Fit_3.0 vertical")
  (property "Sheetfile" "vzbiner.kicad_sch")
  (property "Sheetname" "")
  (property "ki_description" "Generic connector, single row, 01x02, script generated")
  (property "ki_keywords" "connector")
  (attr through_hole)
  (fp_text reference "J3" (at 1.5 -3.67 180) (layer "F.SilkS")
      (effects (font (size 1 1) (thickness 0.15)))
    (tstamp b55a0f13-1c80-462a-82ff-d4f939aa5d31)
  )
  (fp_text value "HE Heater" (at 1.5 4.5 180) (layer "F.Fab")
      (effects (font (size 1 1) (thickness 0.15)))
    (tstamp 875d76c8-5bc4-424c-baff-bd59241a388e)
  )
  (fp_text user "${REFERENCE}" (at 1.5 1.2 180) (layer "F.Fab")
      (effects (font (size 1 1) (thickness 0.15)))
    (tstamp 6e27548a-38ce-44b4-a553-7153605abf1b)
  )
  (fp_line (start -3.435 -1.065) (end -3.435 2.01)
    (stroke (width 0.12) (type solid)) (layer "F.SilkS") (tstamp 737c7f26-4499-4fa7-aee9-a9b5c244c3cb))
  (fp_line (start -3.435 2.01) (end 6.435 2.01)
    (stroke (width 0.12) (type solid)) (layer "F.SilkS") (tstamp 0dae3552-c0b8-4bdc-ad25-e18c741ff687))
  (fp_line (start -2.015 -2.58) (end -2.015 -2.08)
    (stroke (width 0.12) (type solid)) (layer "F.SilkS") (tstamp 71599113-ddef-4514-9c57-de1eb13ed10c))
  (fp_line (start -2.015 -2.08) (end 5.015 -2.08)
    (stroke (width 0.12) (type solid)) (layer "F.SilkS") (tstamp e08a63cf-0f4d-4dc8-bc0b-fc7a214c92b0))
  (fp_line (start -1.995 -2.58) (end -2.015 -2.58)
    (stroke (width 0.12) (type solid)) (layer "F.SilkS") (tstamp 30b9f197-befb-4840-8dea-3129222f85a4))
  (fp_line (start 5.015 -2.58) (end 4.995 -2.58)
    (stroke (width 0.12) (type solid)) (layer "F.SilkS") (tstamp aaa018b6-1925-4939-b92f-18b09a3a4881))
  (fp_line (start 5.015 -2.08) (end 5.015 -2.58)
    (stroke (width 0.12) (type solid)) (layer "F.SilkS") (tstamp fee0197c-7b5f-4e09-bdd1-5f707f53c0a7))
  (fp_line (start 6.435 2.01) (end 6.435 -1.065)
    (stroke (width 0.12) (type solid)) (layer "F.SilkS") (tstamp 9e582dff-f3c3-4f1e-879b-07f40d64b451))
  (fp_line (start -3.82 -2.97) (end 6.82 -2.97)
    (stroke (width 0.05) (type solid)) (layer "F.CrtYd") (tstamp 0097a704-9e2c-454c-979b-ac19e365b768))
  (fp_line (start -3.82 3.8) (end -3.82 -2.97)
    (stroke (width 0.05) (type solid)) (layer "F.CrtYd") (tstamp 3091c2b6-dbd1-4aca-8335-fbe53bc6426b))
  (fp_line (start 6.82 -2.97) (end 6.82 3.8)
    (stroke (width 0.05) (type solid)) (layer "F.CrtYd") (tstamp 2938bb62-60ce-46c1-af70-ab51ef4a2c93))
  (fp_line (start 6.82 3.8) (end -3.82 3.8)
    (stroke (width 0.05) (type solid)) (layer "F.CrtYd") (tstamp 147e4c42-8913-4226-b1b2-c3b2c44e3b89))
  (fp_line (start -3.325 -2.47) (end -3.325 1.9)
    (stroke (width 0.1) (type solid)) (layer "F.Fab") (tstamp b429ee61-713a-415e-bd40-f71fc24ff0cc))
  (fp_line (start -3.325 -1.34) (end -2.125 -1.97)
    (stroke (width 0.1) (type solid)) (layer "F.Fab") (tstamp 519c173e-c06f-4c3b-afa6-ae21aae95332))
  (fp_line (start -3.325 1.9) (end 6.325 1.9)
    (stroke (width 0.1) (type solid)) (layer "F.Fab") (tstamp 67c42bdc-f72b-497b-a45b-8d7c68efd31d))
  (fp_line (start -2.125 -2.47) (end -3.325 -2.47)
    (stroke (width 0.1) (type solid)) (layer "F.Fab") (tstamp 27616bbb-105a-476a-893c-43dacfa52f0f))
  (fp_line (start -2.125 -1.97) (end -2.125 -2.47)
    (stroke (width 0.1) (type solid)) (layer "F.Fab") (tstamp 140a348a-a344-4f9b-b477-089a0db6d26f))
  (fp_line (start -0.5 -1.97) (end 0 -1.262893)
    (stroke (width 0.1) (type solid)) (layer "F.Fab") (tstamp e33a0227-ee50-4192-8389-3be59086b906))
  (fp_line (start 0 -1.262893) (end 0.5 -1.97)
    (stroke (width 0.1) (type solid)) (layer "F.Fab") (tstamp 186e6a60-3c68-4bbb-a62a-8a7d24c51c4e))
  (fp_line (start 0.8 1.9) (end 0.8 3.3)
    (stroke (width 0.1) (type solid)) (layer "F.Fab") (tstamp 47b1b836-5e2f-4e10-9a23-af7f2c28181f))
  (fp_line (start 0.8 3.3) (end 2.2 3.3)
    (stroke (width 0.1) (type solid)) (layer "F.Fab") (tstamp 191225c3-8091-4ea5-a058-98665ea04646))
  (fp_line (start 2.2 3.3) (end 2.2 1.9)
    (stroke (width 0.1) (type solid)) (layer "F.Fab") (tstamp b599fc64-d2af-4be6-8f62-5e2b4298e4d5))
  (fp_line (start 5.125 -2.47) (end 5.125 -1.97)
    (stroke (width 0.1) (type solid)) (layer "F.Fab") (tstamp 620bfbf1-2ca1-4877-a567-5e33637d5f47))
  (fp_line (start 5.125 -1.97) (end -2.125 -1.97)
    (stroke (width 0.1) (type solid)) (layer "F.Fab") (tstamp 8cc57b7b-fe95-4e60-97e4-7b071dfb74e8))
  (fp_line (start 6.325 -2.47) (end 5.125 -2.47)
    (stroke (width 0.1) (type solid)) (layer "F.Fab") (tstamp e36a9050-4f75-417d-93ad-f5e9e94c3789))
  (fp_line (start 6.325 -1.34) (end 5.125 -1.97)
    (stroke (width 0.1) (type solid)) (layer "F.Fab") (tstamp 263da468-893b-4935-886d-07e17e2dfe02))
  (fp_line (start 6.325 1.9) (end 6.325 -2.47)
    (stroke (width 0.1) (type solid)) (layer "F.Fab") (tstamp 8a638ef1-271c-40a7-b9d9-ed2d9eff4023))
  (pad "" np_thru_hole circle (at -3 -1.96) (size 1.27 1.27) (drill 1.27) (layers "*.Cu" "*.Mask") (tstamp af3b23c6-871a-4960-b1e5-2693c0661c9c))
  (pad "" np_thru_hole circle (at 6 -1.96) (size 1.27 1.27) (drill 1.27) (layers "*.Cu" "*.Mask") (tstamp f106dfe5-31d0-4f0c-8de9-65403a934a51))
  (pad "1" thru_hole roundrect (at 0 0) (size 1.5 2.02) (drill 1.02) (layers "*.Cu" "*.Mask") (roundrect_rratio 0.166667) (tstamp d61bc349-ad37-46c0-8658-a95a25797481))
  (pad "2" thru_hole oval (at 3 0) (size 1.5 2.02) (drill 1.02) (layers "*.Cu" "*.Mask") (tstamp 34bda474-f507-4d3c-a22a-8c92643ec098))
  (model "${KIPRJMOD}/3d/436500215.stp"
    (offset (xyz 1.5 2 10))
    (scale (xyz 1 1 1))
    (rotate (xyz 90 0 180))
  )
)
