(footprint "MountingHole_3.2mm_M3_DIN965_Pad_TopBottom_SLOT" (version 20221018) (generator pcbnew)
  (layer "F.Cu")
  (descr "Mounting Hole 3.2mm, M3, DIN965")
  (tags "mounting hole 3.2mm m3 din965")
  (property "Sheetfile" "vz-printhead-board.kicad_sch")
  (property "Sheetname" "")
  (property "ki_description" "Mounting Hole without connection")
  (property "ki_keywords" "mounting hole")
  (attr exclude_from_pos_files)
  (fp_text reference "H2" (at 0 -3.8) (layer "F.SilkS") hide
      (effects (font (size 1 1) (thickness 0.15)))
    (tstamp a20037ee-6ca9-4774-b2d9-084047422842)
  )
  (fp_text value "MountingSlot" (at 0 3.8) (layer "F.Fab")
      (effects (font (size 1 1) (thickness 0.15)))
    (tstamp e8327549-f250-47fe-ae84-a4624e6b52d7)
  )
  (fp_text user "${REFERENCE}" (at 0 0) (layer "F.Fab")
      (effects (font (size 1 1) (thickness 0.15)))
    (tstamp ffa9c657-39d8-4525-9417-feca73f63ea6)
  )
  (fp_line (start -3 -2.5) (end -2.997636 2.524764)
    (stroke (width 0.12) (type default)) (layer "Cmts.User") (tstamp 2005bc76-80d9-4086-b20e-5867ef928005))
  (fp_line (start 3 -2.524764) (end 3.002364 2.5)
    (stroke (width 0.12) (type default)) (layer "Cmts.User") (tstamp b0f3b39d-1b1f-427e-ae83-82e72588a3d4))
  (fp_arc (start -3.004112 -2.500685) (mid -0.012214 -5.045525) (end 3 -2.524764)
    (stroke (width 0.12) (type default)) (layer "Cmts.User") (tstamp 22ec0d50-0def-46a3-806e-c529ca39237b))
  (fp_arc (start 3.002364 2.5) (mid 0.010466 5.04484) (end -3.001748 2.524079)
    (stroke (width 0.12) (type default)) (layer "Cmts.User") (tstamp e430ac5b-5a22-4503-95a1-b389a231b522))
  (fp_line (start -3.25 -2) (end -3.259519 2.011178)
    (stroke (width 0.05) (type default)) (layer "F.CrtYd") (tstamp ea2d312c-97f8-4814-b6f0-d654a95f87a7))
  (fp_line (start 3.238822 1.990482) (end 3.248341 -2.020696)
    (stroke (width 0.05) (type default)) (layer "F.CrtYd") (tstamp ef9a2add-1ef7-4705-8b0d-731d26a326f5))
  (fp_arc (start -3.25 -2) (mid -0.011178 -5.259518) (end 3.248341 -2.020696)
    (stroke (width 0.05) (type default)) (layer "F.CrtYd") (tstamp 3da6867a-3a56-4ada-b5af-4fb2387f9e81))
  (fp_arc (start 3.238822 1.990482) (mid 0 5.25) (end -3.259519 2.011178)
    (stroke (width 0.05) (type default)) (layer "F.CrtYd") (tstamp 9dd25e70-6c9c-4e0e-90ea-4e57703e5b42))
  (pad "" np_thru_hole oval (at 0 0) (size 3.6 8) (drill oval 3.2 7.6) (layers "*.Mask") (tstamp ffa7140e-e535-458e-af04-46b8efb44bcc))
)
